-----BEGIN PGP SIGNED MESSAGE-----
Hash: SHA256

SSL
Host        enigmail.net
SHA-256     EC:B0:91:43:9B:31:60:23:2D:4B:CC:3A:33:D7:1A:67:
            5D:CF:2E:D2:E1:93:C0:82:F3:65:6F:FC:0E:E3:9E:96
SHA-1       C5:3B:0A:72:4F:86:5B:8C:26:8C:92:53:F0:A1:0A:06:A2:3C:74:83
Expires     16 Sep 2015

GPG
Email       patrick@enigmail.net
Key ID      0xDD5F693B
Fingerprint 4F9F 89F5 505A C1D1 A260 631C DB11 87B9 DD5F 693B
Expires     14 Jan 2025

This document updated 2 May 2015.
-----BEGIN PGP SIGNATURE-----

iQEcBAEBCAAGBQJVRP3aAAoJEBkMvilqhTg3uV8IAJcuEEQZSPoI82XcYknnDVO2
5NBCPI/xDoEdjLsKr6qVc4LDQxHVIXgk1L/zFMlS6m0SIUM8K1xZofg9LWQcll3L
rqQ6Brz3vAn87zcplHFOHKbVodMxUHOWBu9YmCH4rBAnRNHKNkEmxF+/BK2eMD7i
Vg6O3XF+gmJfUxZgJ+lWwjF59m0W9HDsNGmpxr5yYismS3oeeCRsd5NBEYzC/oSk
iwHVu0KhDh3w6ih1xXMlbBz8cnxEVwzhhF2hbWuJaUk+yRvSFMPd1ZQwkC/nNM2k
mm6U2nEb3hTl4/5S3hQ/Hreqi0AT0GPMEiTrnnQ0nnrgzwDJel/CcXXmUeBjBhI=
=Y1F9
-----END PGP SIGNATURE-----
